{
  "url": "http://feature.zipcap.com/api/v1/users/getstartedmobile",
  "headers": {
    "x-api-key": "web-api-key",
    "Content-Type": "application/json"
  },
  "body": {
  "email": "test1234@qq.zzz",
  "zip_code": "10008",
  "firstName": "test",
  "lastName": "tester-aaa",
  "phone": "0634224555",
  "password": "qwerty",
  "pin": "4898"
}
}